<?xml version="1.0" encoding="UTF-8" standalone="no"?>
<!-- Created with Inkscape (http://www.inkscape.org/) -->

<svg
   width="140.31935mm"
   height="99.054108mm"
   viewBox="0 0 140.31935 99.054108"
   version="1.1"
   id="svg5"
   inkscape:version="1.1 (c68e22c387, 2021-05-23)"
   sodipodi:docname="tab.svg"
   xmlns:inkscape="http://www.inkscape.org/namespaces/inkscape"
   xmlns:sodipodi="http://sodipodi.sourceforge.net/DTD/sodipodi-0.dtd"
   xmlns:xlink="http://www.w3.org/1999/xlink"
   xmlns="http://www.w3.org/2000/svg"
   xmlns:svg="http://www.w3.org/2000/svg">
  <sodipodi:namedview
     id="namedview7"
     pagecolor="#71b4c8"
     bordercolor="#666666"
     borderopacity="1.0"
     inkscape:pageshadow="2"
     inkscape:pageopacity="0"
     inkscape:pagecheckerboard="0"
     inkscape:document-units="mm"
     showgrid="false"
     fit-margin-left="10"
     fit-margin-top="10"
     fit-margin-bottom="10"
     fit-margin-right="10"
     inkscape:zoom="1.4142136"
     inkscape:cx="260.56885"
     inkscape:cy="86.620581"
     inkscape:window-width="1280"
     inkscape:window-height="953"
     inkscape:window-x="-4"
     inkscape:window-y="-4"
     inkscape:window-maximized="1"
     inkscape:current-layer="layer1" />
  <defs
     id="defs2">
    <linearGradient
       inkscape:collect="always"
       id="linearGradient25873">
      <stop
         style="stop-color:#737a80;stop-opacity:1"
         offset="0"
         id="stop25869" />
      <stop
         style="stop-color:#d0d3d7;stop-opacity:1"
         offset="1"
         id="stop25871" />
    </linearGradient>
    <linearGradient
       inkscape:collect="always"
       id="linearGradient21680-5">
      <stop
         style="stop-color:#fdfdfd;stop-opacity:1"
         offset="0"
         id="stop21676" />
      <stop
         style="stop-color:#d8dce0;stop-opacity:1"
         offset="1"
         id="stop21678" />
    </linearGradient>
    <linearGradient
       inkscape:collect="always"
       id="linearGradient13609">
      <stop
         style="stop-color:#1a1b1f;stop-opacity:1"
         offset="0"
         id="stop13605" />
      <stop
         style="stop-color:#4b4b50;stop-opacity:1"
         offset="1"
         id="stop13607" />
    </linearGradient>
    <linearGradient
       inkscape:collect="always"
       xlink:href="#linearGradient13609"
       id="linearGradient13611"
       x1="11.562392"
       y1="21.670082"
       x2="11.562392"
       y2="14.418899"
       gradientUnits="userSpaceOnUse"
       gradientTransform="translate(-1.4543678,-6.1083449)" />
    <linearGradient
       inkscape:collect="always"
       xlink:href="#linearGradient21680-5"
       id="linearGradient21682"
       x1="22.508034"
       y1="21.613415"
       x2="22.508034"
       y2="15.433082"
       gradientUnits="userSpaceOnUse"
       gradientTransform="translate(-3.7396606,-6.0347722)" />
    <linearGradient
       inkscape:collect="always"
       xlink:href="#linearGradient25873"
       id="linearGradient45895"
       gradientUnits="userSpaceOnUse"
       gradientTransform="translate(10.885248,-6.0347722)"
       x1="22.508034"
       y1="21.613415"
       x2="21.912722"
       y2="15.565373" />
    <linearGradient
       inkscape:collect="always"
       xlink:href="#linearGradient25873"
       id="linearGradient48346"
       gradientUnits="userSpaceOnUse"
       gradientTransform="translate(25.172748,-6.0347722)"
       x1="22.508034"
       y1="21.613415"
       x2="21.912722"
       y2="15.565373" />
  </defs>
  <g
     inkscape:label="Слой 1"
     inkscape:groupmode="layer"
     id="layer1"
     transform="translate(0.83731461,-0.41937923)">
    <rect
       style="color:#000000;overflow:visible;opacity:1;fill:url(#linearGradient13611);fill-opacity:1;stroke-width:0.133"
       id="rect12310"
       width="120.21651"
       height="7.5420675"
       x="7.8111563"
       y="8.2378273" />
    <path
       style="fill:url(#linearGradient48346);fill-opacity:1;fill-rule:evenodd;stroke:none;stroke-width:0.264583px;stroke-linecap:butt;stroke-linejoin:miter;stroke-opacity:1"
       d="m 36.620726,15.779893 c 4.413606,0 2.09549,-6.3857379 6.714699,-6.3499479 h 8.435676 c 4.494389,0.0221 2.554134,6.3207579 6.761466,6.3499479 -3.619341,0 -26.662454,0 -21.911841,0 z"
       id="path48340"
       sodipodi:nodetypes="ccccc" />
    <path
       style="fill:url(#linearGradient45895);fill-opacity:1;fill-rule:evenodd;stroke:none;stroke-width:0.264583px;stroke-linecap:butt;stroke-linejoin:miter;stroke-opacity:1"
       d="m 22.333226,15.779893 c 4.413606,0 2.09549,-6.3857379 6.714699,-6.3499479 h 8.435676 c 4.494389,0.0221 2.554134,6.3207579 6.761466,6.3499479 -3.619341,0 -26.662454,0 -21.911841,0 z"
       id="path45893"
       sodipodi:nodetypes="ccccc" />
    <text
       xml:space="preserve"
       style="font-size:2.82222px;line-height:125%;font-family:'MV Boli';-inkscape-font-specification:'MV Boli';letter-spacing:0px;word-spacing:0px;fill:none;stroke:#424248;stroke-width:0.264583px;stroke-linecap:butt;stroke-linejoin:miter;stroke-opacity:1"
       x="42.673294"
       y="13.509575"
       id="text48344"><tspan
         sodipodi:role="line"
         id="tspan48342"
         style="font-style:normal;font-variant:normal;font-weight:normal;font-stretch:normal;font-size:2.82222px;font-family:Consolas;-inkscape-font-specification:'Consolas, Normal';font-variant-ligatures:normal;font-variant-caps:normal;font-variant-numeric:normal;font-variant-east-asian:normal;stroke:#424248;stroke-width:0.264583px;stroke-opacity:1"
         x="42.673294"
         y="13.509575"
         rotate="0 0 0 0 0 0">tab 3</tspan></text>
    <rect
       style="color:#000000;overflow:visible;fill:#ffffff;fill-opacity:1;stroke-width:0.133"
       id="rect12472"
       width="120.11972"
       height="67.539078"
       x="7.8410454"
       y="15.752674" />
    <path
       style="fill:url(#linearGradient21682);fill-opacity:1;fill-rule:evenodd;stroke:none;stroke-width:0.264583px;stroke-linecap:butt;stroke-linejoin:miter;stroke-opacity:1"
       d="m 7.7083176,15.779893 c 4.4136054,0 2.0954896,-6.3857379 6.7146984,-6.3499479 h 8.435676 c 4.494389,0.0221 2.554134,6.3207579 6.761466,6.3499479 -3.619341,0 -26.6624535,0 -21.9118404,0 z"
       id="path87"
       sodipodi:nodetypes="ccccc" />
    <text
       xml:space="preserve"
       style="font-size:2.82222px;line-height:125%;font-family:'MV Boli';-inkscape-font-specification:'MV Boli';letter-spacing:0px;word-spacing:0px;fill:none;stroke:#62626a;stroke-width:0.264583px;stroke-linecap:butt;stroke-linejoin:miter;stroke-opacity:1"
       x="13.470119"
       y="13.612415"
       id="text3986"><tspan
         sodipodi:role="line"
         id="tspan3984"
         style="font-style:normal;font-variant:normal;font-weight:normal;font-stretch:normal;font-size:2.82222px;font-family:Consolas;-inkscape-font-specification:'Consolas, Normal';font-variant-ligatures:normal;font-variant-caps:normal;font-variant-numeric:normal;font-variant-east-asian:normal;stroke:#62626a;stroke-width:0.264583px;stroke-opacity:1"
         x="13.470119"
         y="13.612415"
         rotate="0 0 0 0 0 0">tab 1</tspan></text>
    <text
       xml:space="preserve"
       style="font-size:2.82222px;line-height:125%;font-family:'MV Boli';-inkscape-font-specification:'MV Boli';letter-spacing:0px;word-spacing:0px;fill:none;stroke:#424248;stroke-width:0.264583px;stroke-linecap:butt;stroke-linejoin:miter;stroke-opacity:1"
       x="70.748596"
       y="12.275503"
       id="text42124"><tspan
         sodipodi:role="line"
         id="tspan42122"
         style="font-style:normal;font-variant:normal;font-weight:normal;font-stretch:normal;font-size:2.82222px;font-family:Consolas;-inkscape-font-specification:'Consolas, Normal';font-variant-ligatures:normal;font-variant-caps:normal;font-variant-numeric:normal;font-variant-east-asian:normal;stroke:#424248;stroke-width:0.264583px;stroke-opacity:1"
         x="70.748596"
         y="12.275503"
         rotate="0 0 0 0 0 0">tab 3</tspan></text>
    <text
       xml:space="preserve"
       style="font-size:2.82222px;line-height:125%;font-family:'MV Boli';-inkscape-font-specification:'MV Boli';letter-spacing:0px;word-spacing:0px;fill:none;stroke:#424248;stroke-width:0.264583px;stroke-linecap:butt;stroke-linejoin:miter;stroke-opacity:1"
       x="28.385794"
       y="13.509575"
       id="text38775"><tspan
         sodipodi:role="line"
         id="tspan38773"
         style="font-style:normal;font-variant:normal;font-weight:normal;font-stretch:normal;font-size:2.82222px;font-family:Consolas;-inkscape-font-specification:'Consolas, Normal';font-variant-ligatures:normal;font-variant-caps:normal;font-variant-numeric:normal;font-variant-east-asian:normal;stroke:#424248;stroke-width:0.264583px;stroke-opacity:1"
         x="28.385794"
         y="13.509575"
         rotate="0 0 0 0 0 0">tab 2</tspan></text>
  </g>
</svg>
