<?xml version="1.0" encoding="UTF-8" standalone="no"?>
<!-- Created with Inkscape (http://www.inkscape.org/) -->

<svg
   width="256"
   height="256"
   viewBox="0 0 256 256"
   id="svg2"
   version="1.1"
   inkscape:version="1.1 (c68e22c387, 2021-05-23)"
   sodipodi:docname="manage.svg"
   inkscape:export-filename="C:\tmp\ok24.png"
   inkscape:export-xdpi="9"
   inkscape:export-ydpi="9"
   xmlns:inkscape="http://www.inkscape.org/namespaces/inkscape"
   xmlns:sodipodi="http://sodipodi.sourceforge.net/DTD/sodipodi-0.dtd"
   xmlns="http://www.w3.org/2000/svg"
   xmlns:svg="http://www.w3.org/2000/svg"
   xmlns:rdf="http://www.w3.org/1999/02/22-rdf-syntax-ns#"
   xmlns:cc="http://creativecommons.org/ns#"
   xmlns:dc="http://purl.org/dc/elements/1.1/">
  <defs
     id="defs4" />
  <sodipodi:namedview
     id="base"
     pagecolor="#ffffff"
     bordercolor="#000000"
     borderopacity="1"
     inkscape:pageopacity="0"
     inkscape:pageshadow="2"
     inkscape:zoom="1"
     inkscape:cx="210"
     inkscape:cy="178.5"
     inkscape:document-units="px"
     inkscape:current-layer="layer3"
     showgrid="false"
     units="px"
     inkscape:window-width="1280"
     inkscape:window-height="953"
     inkscape:window-x="-4"
     inkscape:window-y="-4"
     inkscape:window-maximized="1"
     showborder="true"
     inkscape:showpageshadow="false"
     borderlayer="false"
     inkscape:pagecheckerboard="0">
    <inkscape:grid
       type="xygrid"
       id="grid4150" />
  </sodipodi:namedview>
  <metadata
     id="metadata7">
    <rdf:RDF>
      <cc:Work
         rdf:about="">
        <dc:format>image/svg+xml</dc:format>
        <dc:type
           rdf:resource="http://purl.org/dc/dcmitype/StillImage" />
        <dc:title />
      </cc:Work>
    </rdf:RDF>
  </metadata>
  <g
     inkscape:label="Layer 1"
     inkscape:groupmode="layer"
     id="layer1"
     transform="translate(0,-796.3622)"
     style="display:none">
    <g
       aria-label="+"
       id="text1573"
       style="font-size:117.333px;line-height:125%;font-family:Arial;-inkscape-font-specification:Arial;letter-spacing:0px;word-spacing:0px;fill:#00ff00;stroke:#2b0000;stroke-width:0.967174;stroke-miterlimit:4;stroke-dasharray:none"
       transform="matrix(3.1018215,0,0,3.1018215,-39.437068,-1751.5242)">
      <path
         d="m 55.765506,867.29458 q -3.265615,15.41141 -3.265615,20.39577 0,1.60417 -2.062494,2.63541 -2.005203,1.03125 -4.067697,1.03125 -2.29166,0 -3.723948,-1.14583 -1.432288,-1.14583 -1.432288,-2.86457 0,-6.13019 3.265616,-19.70828 -8.078102,0.17187 -13.979127,0.80208 -3.43749,0.34375 -4.640612,0.34375 -3.265615,0 -3.265615,-5.72915 0,-2.23437 3.151032,-3.55208 3.208325,-1.3177 21.369731,-1.60416 5.729151,-19.42182 7.276021,-21.71348 1.546871,-2.34895 4.526029,-2.34895 4.697903,0 4.697903,2.23437 0,1.20312 -0.859372,3.66666 -0.859373,2.46353 -4.869778,17.81765 10.828094,-0.34375 17.817658,-0.34375 4.468737,0 4.468737,4.46874 0,5.27082 -6.588523,5.27082 -7.447895,0 -17.817658,0.34375 z"
         style="font-family:'MV Boli';-inkscape-font-specification:'MV Boli';fill:#00ff00;stroke:#2b0000;stroke-width:0.967174;stroke-miterlimit:4;stroke-dasharray:none"
         id="path4844" />
    </g>
  </g>
  <g
     inkscape:groupmode="layer"
     id="layer2"
     inkscape:label="Layer 2"
     style="display:none">
    <g
       aria-label="- "
       id="text8948"
       style="font-size:40px;line-height:125%;font-family:'MV Boli';-inkscape-font-specification:'MV Boli';letter-spacing:0px;word-spacing:0px;display:inline;fill:#ff0000;stroke:#000000;stroke-width:0.258837;stroke-miterlimit:4;stroke-dasharray:none"
       transform="matrix(11.590294,0,0,11.590294,3288.8588,-3932.678)">
      <path
         d="m -268.00391,348.07315 q 1.32813,0 1.32813,1.44531 0,1.05469 -0.46875,1.67969 -0.44922,0.60547 -1.25,0.60547 -4.49219,0 -8.08594,0.39062 -1.66016,0.21485 -2.63672,0.21485 -1.28906,0 -1.28906,-1.89453 0,-0.625 0.50781,-1.13282 0.50781,-0.52734 1.25,-0.68359 0.76172,-0.17578 4.41406,-0.39062 3.67188,-0.23438 6.23047,-0.23438 z"
         id="path10616"
         style="fill:#ff0000;stroke-width:0.258837;stroke-miterlimit:4;stroke-dasharray:none" />
    </g>
  </g>
  <g
     inkscape:groupmode="layer"
     id="layer3"
     inkscape:label="Layer 3">
    <path
       style="color:#000000;overflow:visible;fill:#00ff00;stroke:#000000;stroke-width:2.74278;stroke-miterlimit:4;stroke-dasharray:none;stroke-opacity:1"
       id="path24777"
       d="m 72.016244,196.26098 c 3.86432,8.41449 1.712318,15.49749 0.152548,23.32868 -0.678918,4.4997 1.322804,6.57299 5.325298,7.48873 14.467797,3.19647 30.8869,-22.42639 35.20041,-33.50936 C 143.63178,122.53029 206.08222,57.575871 241.63903,22.375552 203.90216,34.761737 180.80385,60.176775 171.28834,70.208914 103.46505,155.8143 95.142925,191.24853 90.089691,190.12787 79.752416,187.83534 78.341327,152.76146 53.206534,159.17148 l -27.540322,18.19221 c 19.364977,-0.14611 37.704695,0.0886 46.350032,18.89729 z"
       sodipodi:nodetypes="ccccccsccc" />
    <path
       style="color:#000000;overflow:visible;fill:#00ff00;stroke:none;stroke-width:3;stroke-miterlimit:4;stroke-dasharray:none"
       id="path24789"
       d="m 602.8493,418.73686 c 5.25789,-1.1991 10.80232,-1.53737 16.13557,-0.742 0.77395,0.41997 1.63542,0.70839 2.32186,1.25991 5.23917,4.20942 6.32326,13.54011 7.35868,19.64921 0.86257,3.76745 0.45739,7.72691 1.25778,11.49916 0.0993,0.46823 0.0876,1.5142 0.53112,1.33411 14.36023,-5.83135 12.31685,-2.82863 15.50609,-10.4236 9.54897,-25.06999 26.25273,-46.23042 43.08174,-66.76476 0,0 -10.51375,4.48563 -10.51375,4.48563 v 0 c -13.53395,16.98345 -26.80779,34.14703 -37.68049,53.00381 -1.77915,3.08562 -3.32224,6.30146 -4.97956,9.45419 -0.99289,1.88879 -1.98071,3.78024 -2.97107,5.67036 -0.65784,0.95301 -3.09092,3.16292 -1.97351,2.85901 4.38618,-1.1929 8.39676,-3.52372 12.39156,-5.69239 0.2732,-0.14831 -0.51387,-0.40665 -0.61583,-0.70032 -0.29573,-0.85177 -0.39709,-1.75996 -0.54706,-2.64905 -0.48076,-2.85021 -0.71849,-5.73818 -1.23445,-8.58311 -1.16427,-6.73603 -2.08158,-16.07456 -7.4923,-20.9849 -0.774,-0.70243 -1.75395,-1.13735 -2.63093,-1.70603 -5.29078,-0.95106 -10.73961,-0.60069 -16.06707,-0.0521 0,0 -11.87838,9.0829 -11.87838,9.0829 z" />
  </g>
</svg>
